[gd_scene load_steps=4 format=2]

[ext_resource path="res://lib/assets/props/DeadTree_5.glb" type="PackedScene" id=1]
[ext_resource path="res://lib/assets/props/TreeBeacon.tscn" type="PackedScene" id=2]

[sub_resource type="CylinderShape" id=1]
radius = 0.3
height = 3.0

[node name="DeadTree_5" instance=ExtResource( 1 )]

[node name="StaticBody" type="StaticBody" parent="." index="1"]

[node name="CollisionShape" type="CollisionShape" parent="StaticBody" index="0"]
transform = Transform( 1, 0, 0, 0, 1, 0, 0, 0, 1, -0.130826, 1.5, -0.138907 )
shape = SubResource( 1 )

[node name="Beacon" parent="." index="2" instance=ExtResource( 2 )]
